\select@language {spanish}
\contentsline {section}{\'{I}ndice}{\es@scroman {i}}{section*.1}
\contentsline {section}{\'{I}ndice de figuras}{\es@scroman {ii}}{section*.2}
\contentsline {section}{\'{I}ndice de tablas}{\es@scroman {iii}}{section*.3}
\contentsline {section}{\numberline {1}Pregunta 1}{1}{section.1}
\contentsline {section}{\numberline {2}Pregunta 2}{1}{section.2}
\contentsline {section}{\numberline {3}Pregunta 3}{3}{section.3}
\contentsline {section}{\numberline {4}Pregunta 4}{3}{section.4}
\contentsline {section}{\numberline {5}Pregunta 5}{5}{section.5}
\contentsline {section}{\numberline {6}Pregunta 6}{6}{section.6}
\contentsline {section}{\numberline {7}Pregunta 7}{8}{section.7}
\contentsline {section}{\numberline {8}Pregunta 8}{9}{section.8}
\contentsline {section}{\numberline {9}Pregunta 9}{11}{section.9}
\contentsline {section}{\numberline {10}Pregunta 10}{13}{section.10}
\contentsline {section}{\numberline {11}Pregunta 11}{13}{section.11}
\contentsline {section}{\numberline {12}Pregunta 12}{15}{section.12}
\contentsline {section}{\numberline {13}Pregunta 13}{15}{section.13}
\contentsline {section}{\numberline {14}Pregunta 14}{17}{section.14}
\contentsline {section}{\numberline {15}Pregunta 15}{18}{section.15}
\contentsline {section}{\numberline {16}Pregunta 16}{18}{section.16}
\contentsline {section}{\numberline {17}Pregunta 17}{24}{section.17}
