\relax 
\providecommand\hyper@newdestlabel[2]{}
\catcode `"\active 
\catcode `<\active 
\catcode `>\active 
\@nameuse{es@quoting}
\providecommand\HyperFirstAtBeginDocument{\AtBeginDocument}
\HyperFirstAtBeginDocument{\ifx\hyper@anchor\@undefined
\global\let\oldcontentsline\contentsline
\gdef\contentsline#1#2#3#4{\oldcontentsline{#1}{#2}{#3}}
\global\let\oldnewlabel\newlabel
\gdef\newlabel#1#2{\newlabelxx{#1}#2}
\gdef\newlabelxx#1#2#3#4#5#6{\oldnewlabel{#1}{{#2}{#3}}}
\AtEndDocument{\ifx\hyper@anchor\@undefined
\let\contentsline\oldcontentsline
\let\newlabel\oldnewlabel
\fi}
\fi}
\global\let\hyper@last\relax 
\gdef\HyperFirstAtBeginDocument#1{#1}
\providecommand\HyField@AuxAddToFields[1]{}
\providecommand\HyField@AuxAddToCoFields[2]{}
\select@language{spanish}
\@writefile{toc}{\select@language{spanish}}
\@writefile{lof}{\select@language{spanish}}
\@writefile{lot}{\select@language{spanish}}
\@writefile{toc}{\contentsline {section}{\'{I}ndice}{\es@scroman  {i}}{section*.1}}
\@writefile{toc}{\contentsline {section}{\'{I}ndice de figuras}{\es@scroman  {ii}}{section*.2}}
\@writefile{toc}{\contentsline {section}{\'{I}ndice de tablas}{\es@scroman  {iii}}{section*.3}}
\@writefile{toc}{\contentsline {section}{\numberline {1}Pregunta 1}{1}{section.1}}
\@writefile{toc}{\contentsline {section}{\numberline {2}Pregunta 2}{1}{section.2}}
\@writefile{lof}{\contentsline {figure}{\numberline {1}{\ignorespaces Patrones del \emph  {dataset1}.\relax }}{2}{figure.caption.4}}
\providecommand*\caption@xref[2]{\@setref\relax\@undefined{#1}}
\newlabel{fig:PatronesDataset1}{{1}{2}{Patrones del \emph {dataset1}.\relax }{figure.caption.4}{}}
\@writefile{toc}{\contentsline {section}{\numberline {3}Pregunta 3}{3}{section.3}}
\@writefile{lof}{\contentsline {figure}{\numberline {2}{\ignorespaces Clasificaci\IeC {\'o}n de \emph  {dataset1} usando un \emph  {kernel} lineal.\relax }}{3}{figure.caption.5}}
\newlabel{fig:Dataset1SVMLineal}{{2}{3}{Clasificación de \emph {dataset1} usando un \emph {kernel} lineal.\relax }{figure.caption.5}{}}
\@writefile{toc}{\contentsline {section}{\numberline {4}Pregunta 4}{3}{section.4}}
\@writefile{lof}{\contentsline {figure}{\numberline {3}{\ignorespaces Clasificaci\IeC {\'o}n de \emph  {dataset1} con los diferentes valores de $C$.\relax }}{4}{figure.caption.6}}
\newlabel{fig:Dataset1LinearParams}{{3}{4}{Clasificación de \emph {dataset1} con los diferentes valores de $C$.\relax }{figure.caption.6}{}}
\@writefile{toc}{\contentsline {section}{\numberline {5}Pregunta 5}{5}{section.5}}
\@writefile{lof}{\contentsline {figure}{\numberline {4}{\ignorespaces Clasificaci\IeC {\'o}n de \emph  {dataset2} usando un \emph  {kernel} lineal.\relax }}{6}{figure.caption.7}}
\newlabel{fig:Dataset2SVMLineal}{{4}{6}{Clasificación de \emph {dataset2} usando un \emph {kernel} lineal.\relax }{figure.caption.7}{}}
\@writefile{toc}{\contentsline {section}{\numberline {6}Pregunta 6}{6}{section.6}}
\@writefile{lof}{\contentsline {figure}{\numberline {5}{\ignorespaces Clasificaci\IeC {\'o}n de \emph  {dataset2} con $C = 10$ y $\gamma = 200$.\relax }}{7}{figure.caption.8}}
\newlabel{fig:Dataset2SVMBuena}{{5}{7}{Clasificación de \emph {dataset2} con $C = 10$ y $\gamma = 200$.\relax }{figure.caption.8}{}}
\@writefile{lof}{\contentsline {figure}{\numberline {6}{\ignorespaces Clasificaci\IeC {\'o}n de \emph  {dataset2} con $C = 1$ y $\gamma = 1$.\relax }}{7}{figure.caption.9}}
\newlabel{fig:Dataset2SVMInfra}{{6}{7}{Clasificación de \emph {dataset2} con $C = 1$ y $\gamma = 1$.\relax }{figure.caption.9}{}}
\@writefile{lof}{\contentsline {figure}{\numberline {7}{\ignorespaces Clasificaci\IeC {\'o}n de \emph  {dataset2} con $C = 1000$ y $\gamma = 1000$.\relax }}{8}{figure.caption.10}}
\newlabel{fig:Dataset2SVMSobre}{{7}{8}{Clasificación de \emph {dataset2} con $C = 1000$ y $\gamma = 1000$.\relax }{figure.caption.10}{}}
\@writefile{toc}{\contentsline {section}{\numberline {7}Pregunta 7}{8}{section.7}}
\@writefile{toc}{\contentsline {section}{\numberline {8}Pregunta 8}{9}{section.8}}
\@writefile{lof}{\contentsline {figure}{\numberline {8}{\ignorespaces Clasificaci\IeC {\'o}n de \emph  {dataset3} con $C = 0.2$ y $\gamma = 200$.\relax }}{9}{figure.caption.11}}
\newlabel{fig:Dataset3Buena}{{8}{9}{Clasificación de \emph {dataset3} con $C = 0.2$ y $\gamma = 200$.\relax }{figure.caption.11}{}}
\@writefile{lof}{\contentsline {figure}{\numberline {9}{\ignorespaces Clasificaci\IeC {\'o}n de \emph  {dataset3} con $C = 2$ y $\gamma = 0.2$.\relax }}{10}{figure.caption.12}}
\newlabel{fig:Dataset3Infra}{{9}{10}{Clasificación de \emph {dataset3} con $C = 2$ y $\gamma = 0.2$.\relax }{figure.caption.12}{}}
\@writefile{lof}{\contentsline {figure}{\numberline {10}{\ignorespaces Clasificaci\IeC {\'o}n de \emph  {dataset3} con $C = 200$ y $\gamma = 200$.\relax }}{10}{figure.caption.13}}
\newlabel{fig:Dataset3Sobre}{{10}{10}{Clasificación de \emph {dataset3} con $C = 200$ y $\gamma = 200$.\relax }{figure.caption.13}{}}
\@writefile{toc}{\contentsline {section}{\numberline {9}Pregunta 9}{11}{section.9}}
\@writefile{lof}{\contentsline {figure}{\numberline {11}{\ignorespaces Clasificaci\IeC {\'o}n de \emph  {dataset3} con normalizaci\IeC {\'o}n y con $C = 0.2$ y $\gamma = 200$.\relax }}{12}{figure.caption.14}}
\newlabel{fig:Dataset3NormC02G200}{{11}{12}{Clasificación de \emph {dataset3} con normalización y con $C = 0.2$ y $\gamma = 200$.\relax }{figure.caption.14}{}}
\@writefile{lof}{\contentsline {figure}{\numberline {12}{\ignorespaces Clasificaci\IeC {\'o}n de \emph  {dataset3} con normalizaci\IeC {\'o}n y con $C = 2$ y $\gamma = 2$.\relax }}{12}{figure.caption.15}}
\newlabel{fig:Dataset3NormC2G2}{{12}{12}{Clasificación de \emph {dataset3} con normalización y con $C = 2$ y $\gamma = 2$.\relax }{figure.caption.15}{}}
\@writefile{toc}{\contentsline {section}{\numberline {10}Pregunta 10}{13}{section.10}}
\@writefile{toc}{\contentsline {section}{\numberline {11}Pregunta 11}{13}{section.11}}
\@writefile{lof}{\contentsline {figure}{\numberline {13}{\ignorespaces Clasificaci\IeC {\'o}n de \emph  {dataset3} con ajuste de par\IeC {\'a}metros por CV.\relax }}{14}{figure.caption.16}}
\newlabel{fig:Dataset3CV}{{13}{14}{Clasificación de \emph {dataset3} con ajuste de parámetros por CV.\relax }{figure.caption.16}{}}
\@writefile{toc}{\contentsline {section}{\numberline {12}Pregunta 12}{15}{section.12}}
\@writefile{toc}{\contentsline {section}{\numberline {13}Pregunta 13}{15}{section.13}}
\@writefile{lof}{\contentsline {figure}{\numberline {14}{\ignorespaces Clasificaci\IeC {\'o}n de \emph  {dataset3} con ajuste de par\IeC {\'a}metros por FitCV.\relax }}{16}{figure.caption.17}}
\newlabel{fig:Dataset3Manual}{{14}{16}{Clasificación de \emph {dataset3} con ajuste de parámetros por FitCV.\relax }{figure.caption.17}{}}
\@writefile{toc}{\contentsline {section}{\numberline {14}Pregunta 14}{17}{section.14}}
\@writefile{lot}{\contentsline {table}{\numberline {1}{\ignorespaces Tiempos computacionales en \emph  {noMNIST}\relax }}{17}{table.caption.18}}
\newlabel{table:TiemposNomnist}{{1}{17}{Tiempos computacionales en \emph {noMNIST}\relax }{table.caption.18}{}}
\@writefile{toc}{\contentsline {section}{\numberline {15}Pregunta 15}{18}{section.15}}
\@writefile{lot}{\contentsline {table}{\numberline {2}{\ignorespaces Resultados modelo lineal en \emph  {Spam}\relax }}{18}{table.caption.19}}
\newlabel{table:SpamLinear}{{2}{18}{Resultados modelo lineal en \emph {Spam}\relax }{table.caption.19}{}}
\@writefile{toc}{\contentsline {section}{\numberline {16}Pregunta 16}{18}{section.16}}
\@writefile{lot}{\contentsline {table}{\numberline {3}{\ignorespaces Matriz de confusi\IeC {\'o}n en \emph  {Spam}\relax }}{18}{table.caption.20}}
\newlabel{table:MatrizConfusionSpam}{{3}{18}{Matriz de confusión en \emph {Spam}\relax }{table.caption.20}{}}
\@writefile{toc}{\contentsline {section}{\numberline {17}Pregunta 17}{24}{section.17}}
