0.102647,0.119463
0.124648,0.137341
0.155299,0.171162
0.582678,0.585354
0.648774,0.501345
0.315188,0.330945
0.643062,0.490173
0.311842,0.255058
0.859463,0.807435
0.66637,0.613924
0.369112,0.367078
0.810594,0.79541
0.417899,0.398467
0.696308,0.588551
0.760419,0.739378
0.443056,0.363856
0.692514,0.659949
0.316684,0.296089
0.559897,0.616316
0.412079,0.36939
0.165941,0.181464
0.230928,0.430089
0.120638,0.184802
0.342747,0.290804
0.144701,0.166416
0.415182,0.397812
0.643073,0.576946
0.116307,0.0745526
0.404485,0.406029
0.715864,0.74658
0.846559,0.741863
0.614116,0.496648
0.453611,0.445868
0.60596,0.574637
0.712249,0.598172
0.494494,0.422649
0.746783,0.708345
0.767529,0.764049
0.23843,0.289498
0.242852,0.296579
0.516477,0.555464
0.428823,0.423791
0.273503,0.376888
0.588601,0.474211
0.645483,0.579766
0.580817,0.553036
0.429342,0.459453
0.055583,0.0953889
0.462055,0.383511
0.268608,0.239013
0.561014,0.530333
0.594953,0.711973
0.2183,0.271657
0.501033,0.422946
0.672222,0.732178
0.719092,0.519419
0.261481,0.197814
0.833336,0.806736
0.140522,0.214694
0.570364,0.512058
0.415345,0.440031
0.201857,0.236888
0.714902,0.675877
0.770561,0.78331
0.584477,0.519513
0.375074,0.417731
0.284115,0.348862
0.148082,0.162101
0.348968,0.366331
0.316418,0.308026
0.56379,0.571174
0.627248,0.568846
0.566466,0.472514
0.733754,0.768921
0.548752,0.491522
0.622995,0.663449
0.427978,0.353475
0.406275,0.429055
0.516737,0.420065
0.374283,0.374506
0.574901,0.608215
0.443999,0.440068
0.689411,0.592647
0.74112,0.6983
0.681248,0.559374
0.353576,0.38107
0.388473,0.382456
0.322337,0.338543
0.232435,0.425613
0.341633,0.331654
0.259655,0.414909
0.437552,0.425076
0.741625,0.766586
0.400209,0.444875
0.88852,0.867626
0.479559,0.368032
0.290308,0.299668
0.107736,0.159276
0.237029,0.204807
0.172716,0.378168
0.423079,0.439148
0.620288,0.530224
0.198404,0.283082
0.198513,0.143202
0.153751,0.14316
0.553384,0.48763
0.549256,0.422383
0.363243,0.314962
0.0838414,0.189737
0.404133,0.353852
0.586256,0.529553
0.495531,0.400269
0.332212,0.37359
0.333171,0.373077
0.310732,0.443986
0.628293,0.61701
0.305176,0.439115
0.57085,0.471609
0.636498,0.527383
0.346038,0.339295
0.649201,0.547159
0.412691,0.42457
0.430144,0.433669
0.432064,0.404611
0.724747,0.517203
0.435628,0.400627
0.0807425,0.0414376
0.158628,0.311568
0.50516,0.498923
0.922498,0.971136
0.495226,0.533575
0.31269,0.29759
0.686542,0.607706
0.560587,0.761459
0.570614,0.464434
0.744407,0.864423
0.315735,0.347805
0.304597,0.408968
0.506751,0.477271
0.259619,0.245241
0.821671,0.75017
0.38086,0.443358
0.371748,0.389248
0.762313,0.696399
0.924556,0.965218
0.450557,0.461546
0.668494,0.678694
0.623987,0.646349
0.340776,0.260529
0.487261,0.472875
0.822051,0.719363
0.0644522,0.0843951
0.0479228,0.0642909
0.332663,0.31463
0.326241,0.362825
0.611954,0.518257
0.389969,0.43425
0.344387,0.358754
0.12376,0.232631
0.265885,0.266279
0.443504,0.408817
0.343095,0.32082
0.218654,0.16995
0.81372,0.707127
0.712492,0.6682
0.409631,0.441743
0.288954,0.235227
0.855236,0.783636
0.373005,0.382085
0.846301,0.936166
0.724955,0.693159
0.925756,0.960839
0.281343,0.360362
0.648235,0.762164
0.183213,0.174388
0.670099,0.669075
0.351557,0.4256
0.712361,0.792099
0.219855,0.241736
0.747631,0.801278
0.47084,0.388041
0.351872,0.377036
0.0995071,0.106182
0.658468,0.624914
0.774951,0.679764
0.481804,0.461674
0.27391,0.319207
0.1077,0.223611
0.619332,0.48914
0.789224,0.789899
0.116344,0.125012
0.484157,0.352613
0.625133,0.502535
0.740682,0.684784
0.0407471,0.0577854
0.109727,0.177272
0.475236,0.431122
0.552311,0.548228
0.892843,0.816118
0.668072,0.620906
0.52757,0.542786
0.146301,0.117135
0.626542,0.56221
0.0541976,0.0999354
0.170936,0.196811
0.926154,0.965954
0.308734,0.348918
0.754299,0.871104
0.694169,0.560319
0.73281,0.771381
0.548571,0.484577
0.311758,0.32554
0.736294,0.502139
0.313956,0.335826
0.593743,0.531244
0.846949,0.699158
0.538647,0.509009
0.651471,0.576988
0.226241,0.193247
0.762842,0.833795
0.0883925,0.172885
0.454567,0.461992
0.925246,0.959806
0.783518,0.772513
0.458283,0.45255
0.451198,0.425596
0.707339,0.597218
0.224094,0.208588
0.162423,0.173828
0.425492,0.415265
0.415415,0.40516
0.733162,0.653546
0.927836,0.971523
0.776662,0.750478
0.263338,0.271659
0.580322,0.596687
0.861311,0.728746
0.642885,0.622448
0.794653,0.655351
0.282144,0.292138
0.617496,0.504604
0.2957,0.415859
0.478661,0.452686
0.529098,0.487532
0.510141,0.560893
0.21705,0.268046
0.758086,0.732743
0.232508,0.173941
0.393844,0.372178
0.383649,0.382672
0.75067,0.813219
0.321628,0.375171
0.391238,0.430121
0.598667,0.454635
0.302664,0.308305
0.616847,0.63108
0.165414,0.130721
0.0505793,0.0874679
0.478611,0.421171
0.260141,0.191835
0.913043,0.948681
0.374644,0.388021
0.830975,0.809436
0.435602,0.400705
0.355624,0.390045
0.94465,0.975299
0.260925,0.271942
0.804544,0.662928
0.773069,0.612862
0.309617,0.257027
0.190017,0.201557
0.932616,0.966775
0.311586,0.291877
0.453084,0.408998
0.561812,0.510233
0.542152,0.477205
0.544215,0.507622
0.763307,0.716408
0.642627,0.571397
0.456233,0.408219
0.516175,0.479612
0.29222,0.379326
0.676716,0.728927
0.294294,0.226084
0.483924,0.462236
0.48538,0.467006
0.0323742,0.0263744
0.252712,0.263649
0.683979,0.850839
0.406529,0.407964
0.509097,0.47282
0.901362,0.808741
0.761247,0.728421
0.738825,0.821842
0.101783,0.109108
0.760571,0.675284
0.382152,0.312982
0.398855,0.333668
0.551007,0.60993
0.626592,0.649976
0.704401,0.625909
0.483653,0.460755
0.578127,0.462401
0.673572,0.499875
0.830703,0.791346
0.392976,0.404458
0.450288,0.432986
0.851301,0.757436
0.312955,0.328716
0.574,0.525315
0.145467,0.204216
0.41076,0.474935
0.73059,0.804799
0.322047,0.315186
0.722346,0.6861
0.200995,0.170155
0.719654,0.692776
0.475015,0.514713
0.0859121,0.12794
0.586724,0.559688
0.680657,0.657419
0.381717,0.423779
0.549365,0.479664
0.838355,0.805084
0.170009,0.126243
0.752176,0.677221
0.906482,0.958327
0.723058,0.607411
0.330731,0.292831
0.338303,0.349803
0.341673,0.360159
0.758526,0.613685
0.134153,0.277922
0.570961,0.599048
0.719802,0.617665
0.725022,0.512186
0.0452937,0.0717227
0.079113,0.153028
0.380521,0.429373
0.330579,0.33569
0.559348,0.515445
0.370562,0.394849
0.81711,0.772796
0.348948,0.30831
0.691713,0.668985
0.321357,0.377528
0.350092,0.328684
0.380936,0.398637
0.0612977,0.0776114
0.46552,0.427335
0.415967,0.399782
0.795438,0.665823
0.158228,0.173131
0.592551,0.559624
0.461007,0.509962
0.101948,0.100294
0.556372,0.572211
0.564773,0.508255
0.723365,0.690424
0.657567,0.532715
0.919598,0.851366
0.495371,0.533518
0.786785,0.732109
0.394641,0.434321
0.773569,0.812134
0.361558,0.354675
0.0733345,0.048622
0.368579,0.376328
0.388744,0.30877
0.942561,0.839436
0.875703,0.816529
0.325698,0.330832
0.537671,0.508912
0.404199,0.412343
0.366931,0.38721
0.727366,0.712689
0.701146,0.87441
0.064729,0.110462
0.692373,0.829077
0.496918,0.547627
0.464822,0.481095
0.368932,0.394521
0.411097,0.442273
0.52819,0.46212
0.110252,0.258658
0.157753,0.332643
0.121711,0.249027
0.229149,0.197265
0.634724,0.590912
0.505002,0.438762
0.338349,0.35606
0.0875281,0.102565
0.777652,0.802387
0.448969,0.420169
0.627915,0.547973
0.659306,0.570483
0.47789,0.482715
0.694719,0.664119
0.752209,0.652455
0.940264,0.973938
0.936124,0.965652
0.30527,0.415027
0.552783,0.585897
0.623443,0.50591
0.09393,0.161414
0.450952,0.408835
0.225325,0.20449
0.789014,0.826797
0.710998,0.525945
0.876731,0.75677
0.538803,0.567391
0.793255,0.732309
0.775831,0.769376
0.24223,0.24423
0.525014,0.467914
0.386547,0.42954
0.352473,0.358854
0.337752,0.365214
0.331935,0.351747
0.739859,0.732974
0.607125,0.611939
0.774585,0.633676
0.625812,0.609102
0.627614,0.518322
0.305698,0.442783
0.339646,0.372995
0.684794,0.511471
0.431102,0.403451
0.643838,0.768891
0.837064,0.821574
0.725685,0.579811
0.379639,0.337926
0.878853,0.839235
0.936568,0.961735
0.685337,0.689438
0.902273,0.774999
0.256782,0.217245
0.49779,0.515693
0.544971,0.60571
0.501995,0.457517
0.454386,0.391154
0.600612,0.443933
0.532781,0.489577
0.684444,0.552839
0.140884,0.138651
0.268066,0.295778
0.475409,0.35515
0.72957,0.820656
0.331426,0.33904
0.741578,0.729245
0.513805,0.443212
0.664138,0.622145
0.730245,0.698628
0.606536,0.531307
0.726606,0.653382
0.500744,0.514397
0.51487,0.474401
0.0754973,0.180599
0.433414,0.403044
0.303243,0.33105
0.097077,0.208352
0.408717,0.320448
0.174477,0.136929
0.699835,0.674614
0.345578,0.337173
0.360811,0.410603
0.660382,0.709849
0.229434,0.22869
0.748646,0.81678
0.679102,0.811089
0.123271,0.284583
0.689891,0.560957
0.642678,0.613382
0.538634,0.569483
0.391898,0.435967
0.323637,0.269485
0.489585,0.468128
0.554685,0.548553
0.539742,0.583863
0.326085,0.407662
0.397819,0.395506
0.621052,0.523767
0.525207,0.598955
0.388526,0.410426
0.567839,0.450536
0.335312,0.33097
0.457129,0.486018
0.632624,0.658772
0.737836,0.641128
0.641031,0.507909
0.538678,0.780499
0.277869,0.281
0.130405,0.171322
0.292509,0.210609
0.599778,0.555282
0.665404,0.530465
0.70164,0.651793
0.828996,0.718923
0.72028,0.526151
0.487751,0.50575
0.0384823,0.0846194
0.398733,0.422035
0.340202,0.353111
0.423904,0.413494
0.465275,0.412299
0.580114,0.443718
0.126139,0.144268
0.814634,0.755302
0.655288,0.634551
0.173184,0.127466
0.575137,0.538156
0.238592,0.295025
0.0863766,0.0751657
0.344873,0.320436
0.0978689,0.230604
0.665839,0.73602
0.189756,0.244047
0.346967,0.360396
0.453328,0.345339
0.439533,0.408383
0.696039,0.703699
0.760523,0.629241
0.784439,0.729736
0.893076,0.782495
0.356878,0.358054
0.906986,0.833889
0.595196,0.805723
0.57166,0.520383
0.127779,0.243081
0.647145,0.647723
0.769763,0.675258
0.652515,0.542886
0.428793,0.380805
0.768311,0.731897
0.322425,0.475961
0.236888,0.243059
0.906232,0.964767
0.481105,0.37488
0.525315,0.53961
0.805879,0.912672
0.460537,0.396131
0.27225,0.271494
0.556178,0.601669
0.721761,0.758221
0.571842,0.460511
0.793554,0.737986
0.429986,0.465525
0.319952,0.384215
0.600769,0.615672
0.516947,0.526031
0.364088,0.369229
0.675366,0.631762
0.250123,0.217764
0.948279,0.973975
0.325583,0.279154
0.724535,0.546463
0.649201,0.822325
0.806295,0.67214
0.465917,0.412099
0.74863,0.551576
0.361539,0.315571
0.0460644,0.0604701
0.507838,0.451139
0.244787,0.228843
0.620016,0.632601
0.724253,0.587712
0.326684,0.323827
0.253625,0.271871
0.444002,0.45055
0.096685,0.166798
0.85399,0.959452
0.0318732,0.0473427
0.508806,0.545238
0.422184,0.433743
0.529945,0.56937
0.737283,0.616212
0.445862,0.399605
0.344062,0.349947
0.490115,0.367567
0.437821,0.416156
0.939632,0.849966
0.132963,0.20155
0.924456,0.972424
0.183179,0.223003
0.550012,0.575854
0.704029,0.718562
0.488456,0.4382
0.155488,0.158341
0.459978,0.376667
0.115073,0.111723
0.195081,0.272875
0.560422,0.408159
0.663759,0.608013
0.311116,0.362552
0.655785,0.511347
0.862508,0.804575
0.502458,0.376064
0.732885,0.647766
0.708573,0.586377
0.551679,0.492053
0.582685,0.657293
0.724849,0.613192
0.340898,0.387664
0.625904,0.667044
0.645854,0.58632
0.0801835,0.186133
0.167547,0.124652
0.136255,0.232853
0.481775,0.453801
0.549058,0.42643
0.433491,0.509603
0.771535,0.750204
0.321223,0.322476
0.478029,0.497766
0.722812,0.528104
0.183714,0.259612
0.171706,0.138388
0.487663,0.435458
0.8135,0.814677
0.386291,0.397814
0.881304,0.787222
0.52012,0.506531
0.549442,0.50226
0.627953,0.643321
0.257913,0.263317
0.0992897,0.178292
0.82065,0.724525
0.756642,0.741751
0.862674,0.923254
0.723704,0.688928
0.615532,0.670726
0.664328,0.531414
0.901252,0.827879
0.446099,0.48496
0.676776,0.693814
0.691913,0.648148
0.785022,0.759418
0.456741,0.388321
0.743095,0.923897
0.799231,0.755187
0.674613,0.606283
0.367851,0.364361
0.598066,0.614191
0.157457,0.165193
0.403396,0.424833
0.286062,0.345361
0.730864,0.650312
0.337626,0.361661
0.545962,0.547473
0.590521,0.788693
0.566197,0.509536
0.690256,0.649929
0.449274,0.500852
0.499693,0.362782
0.583582,0.486657
0.381966,0.426863
0.520316,0.469607
0.714603,0.661912
0.517673,0.521786
0.868849,0.757726
0.896147,0.782127
0.65711,0.520294
0.52438,0.429664
0.571665,0.565292
0.354883,0.41809
0.720167,0.816065
0.48502,0.43954
0.563762,0.490784
0.347429,0.403496
0.324133,0.490648
0.326247,0.374397
0.917403,0.84809
0.519244,0.529194
0.521894,0.555125
0.174654,0.219637
0.839754,0.762993
0.483857,0.462598
0.924481,0.958309
0.658904,0.497929
0.347209,0.425118
0.713759,0.786144
0.58633,0.551149
0.433819,0.407793
0.315393,0.334061
0.0820301,0.0452308
0.227023,0.203192
0.940697,0.972628
0.599644,0.506219
0.36743,0.356482
0.330599,0.342984
0.68134,0.695475
0.255192,0.244977
0.521679,0.376571
0.478693,0.458979
0.405047,0.380549
0.892612,0.963629
0.243749,0.318618
0.555201,0.510972
0.327014,0.298246
0.436009,0.411301
0.600196,0.570326
0.629175,0.620508
0.337943,0.35625
0.478496,0.499427
0.136258,0.168584
0.410314,0.408951
0.349157,0.366423
0.356951,0.367642
0.378989,0.380602
0.41422,0.402673
0.171603,0.180142
0.232722,0.236058
0.326415,0.385132
0.919153,0.970484
0.739963,0.923382
0.451796,0.378624
0.643597,0.684726
0.776071,0.812794
0.224652,0.188478
0.568557,0.536072
0.138111,0.159542
0.106425,0.0486048
0.298319,0.442371
0.554346,0.523071
0.282614,0.289074
0.494566,0.569154
0.487838,0.42261
0.307364,0.315717
0.192507,0.212989
0.397649,0.433871
0.274503,0.295746
0.551284,0.583121
0.562653,0.537978
0.721408,0.604036
0.630591,0.478503
0.742331,0.653516
0.681538,0.80083
0.743868,0.550677
0.330542,0.39605
0.15969,0.137768
0.705242,0.663328
0.198423,0.217462
0.495474,0.398276
0.169307,0.18454
0.108854,0.236151
0.346371,0.332731
0.631942,0.795805
0.392311,0.375863
0.319005,0.358371
0.0815606,0.191921
0.718359,0.551615
0.576572,0.593852
0.35725,0.402643
0.469532,0.404504
0.193213,0.251146
0.286009,0.436501
0.679518,0.567614
0.926378,0.880549
0.730378,0.6685
0.790362,0.759774
0.708622,0.776424
0.35422,0.347737
0.492325,0.464593
0.340428,0.315425
0.711604,0.736455
0.77214,0.722357
0.511485,0.565383
0.288192,0.434344
0.487298,0.542363
0.718591,0.648454
0.720221,0.732988
0.7585,0.554216
0.244643,0.17146
0.430164,0.45912
0.272369,0.261181
0.68939,0.603559
0.25053,0.244632
0.303549,0.363212
0.559438,0.575596
0.913046,0.948876
0.920487,0.868186
0.705501,0.740247
0.338487,0.4215
0.519842,0.411435
0.19379,0.163656
0.598248,0.479102
0.487687,0.505647
0.149491,0.159066
0.879193,0.773308
0.315337,0.433817
0.64693,0.754671
0.482699,0.439655
0.751771,0.696839
0.527934,0.405798
0.776157,0.69765
0.761366,0.709084
0.726952,0.679709
0.221091,0.230973
0.924444,0.852134
0.169214,0.24349
0.234234,0.196396
0.582312,0.51106
0.231372,0.221257
0.730553,0.845212
0.752887,0.580624
0.4968,0.484796
0.376023,0.427981
0.752801,0.751078
0.369893,0.356156
0.284366,0.323193
0.373134,0.387037
0.318338,0.3079
0.427571,0.43107
0.691089,0.608363
0.557004,0.573688
0.233953,0.204319
0.685638,0.594723
0.879745,0.80897
0.0493758,0.0644354
0.359024,0.447535
0.744309,0.69746
0.54199,0.426797
0.813573,0.769796
0.785968,0.652367
0.47898,0.479743
0.378768,0.382186
0.563997,0.575844
0.853444,0.718124
0.767204,0.674725
0.744335,0.689693
0.459181,0.418935
0.845548,0.71957
0.348252,0.320285
0.694958,0.848848
0.383631,0.371681
0.045991,0.0660591
0.686514,0.821865
0.932305,0.961512
0.393568,0.379353
0.648321,0.525761
0.169691,0.19572
0.763905,0.795245
0.307147,0.458027
0.394073,0.423176
0.514253,0.519653
0.644072,0.541723
0.688624,0.631475
0.243252,0.230262
0.32186,0.265158
0.341723,0.409498
0.386245,0.420362
0.537664,0.462298
0.343624,0.380008
0.486091,0.537459
0.729144,0.63559
0.742868,0.703754
0.0529185,0.0946388
0.319116,0.32162
0.743213,0.600904
0.055228,0.11277
0.543762,0.399206
0.557244,0.588305
0.594067,0.479875
0.350039,0.350103
0.292568,0.26822
0.243835,0.255398
0.444692,0.395562
0.36693,0.424237
0.609683,0.579655
0.619116,0.51448
0.857143,0.809607
0.181327,0.209922
0.718264,0.636019
0.380258,0.399147
0.483063,0.410892
0.354066,0.325642
0.240117,0.255833
0.926102,0.875813
0.683834,0.742819
0.35633,0.397575
0.792281,0.65705
0.117223,0.264043
0.613762,0.544487
0.156856,0.221143
0.0866042,0.0554667
0.690258,0.651947
0.523527,0.484504
0.189101,0.236227
0.261833,0.267431
0.779968,0.753927
0.81033,0.788635
0.427178,0.402849
0.63484,0.522015
0.189989,0.246334
0.552652,0.5965
0.347523,0.360642
0.894609,0.959891
0.337773,0.3706
0.66926,0.562805
0.927471,0.967823
0.621078,0.539304
0.648145,0.449504
0.638876,0.705631
0.506144,0.436894
0.076112,0.104635
0.216903,0.139759
0.592645,0.628273
0.372079,0.39142
0.840457,0.777146
0.258124,0.361263
0.365055,0.395793
0.466657,0.398796
0.249626,0.199286
0.560144,0.577983
0.780058,0.739081
0.713194,0.618126
0.286721,0.276427
0.759423,0.783878
0.365094,0.38799
0.103566,0.122349
0.357171,0.360209
0.238929,0.199193
0.395275,0.408509
0.349872,0.434296
0.242502,0.269639
0.37112,0.399591
0.676526,0.723712
0.0580325,0.0900605
0.465705,0.379855
0.43984,0.498527
0.562746,0.404907
0.417984,0.435781
0.228877,0.355017
0.371616,0.377077
0.185204,0.153091
0.923819,0.82532
0.0826813,0.200854
0.460759,0.430977
0.316934,0.373018
0.43422,0.515259
0.652801,0.835149
0.934971,0.972097
0.77244,0.775789
0.307342,0.317473
0.303326,0.427133
0.505905,0.525743
0.588902,0.556913
0.356598,0.36754
0.420386,0.343868
0.761627,0.740436
0.676805,0.567924
0.342037,0.306835
0.572914,0.474028
0.609781,0.470681
0.574456,0.540361
0.378792,0.345041
0.599658,0.653181
0.671143,0.660359
0.757039,0.841298
0.681803,0.509906
0.402558,0.376632
0.247387,0.212709
0.0972949,0.120967
0.721478,0.600885
0.0517285,0.0545703
0.158287,0.155465
0.589149,0.479725
0.706616,0.64079
0.655322,0.691587
0.728492,0.649192
0.369689,0.392324
0.507614,0.388085
0.749156,0.633449
0.312297,0.386652
0.477496,0.439894
0.752972,0.615666
0.936185,0.966141
0.545705,0.473987
0.064322,0.10142
0.0665229,0.111025
0.654867,0.616654
0.659882,0.670753
0.317081,0.377035
0.924295,0.824793
0.908648,0.831866
0.592569,0.444302
0.0474232,0.0354298
0.924063,0.862866
0.516,0.475545
0.40017,0.414177
0.811278,0.689978
0.396763,0.392193
0.601175,0.467708
0.826141,0.776438
0.629604,0.568905
0.609423,0.562963
0.855863,0.74593
0.248413,0.261587
0.179136,0.182923
0.487977,0.427621
0.304893,0.345574
0.731632,0.625523
0.318874,0.355053
0.558245,0.649892
0.789675,0.768192
0.775232,0.740885
0.158752,0.227081
0.570272,0.534688
0.673974,0.576177
0.797258,0.74058
0.262424,0.232144
0.378278,0.377744
0.184124,0.218289
0.468462,0.443763
0.166812,0.181848
0.623342,0.593559
0.604855,0.574946
0.184735,0.229156
0.621841,0.607728
0.386707,0.393363
0.925437,0.966011
0.902839,0.845359
0.608403,0.585375
0.664659,0.61651
0.795392,0.78808
0.376606,0.422252
0.149161,0.215595
0.31536,0.320663
0.381912,0.368501
0.380078,0.446624
0.924968,0.818951
0.931023,0.968485
0.817336,0.673613
0.279429,0.462543
0.918701,0.964174
0.461022,0.502917
0.345017,0.379572
0.395571,0.406653
0.494874,0.450015
0.771439,0.739817
0.306351,0.336982
0.441894,0.42794
0.4152,0.412308
0.324051,0.347143
0.655414,0.62851
0.249574,0.259867
0.712954,0.84689
0.913364,0.802655
0.124672,0.195573
0.73133,0.806622
0.318394,0.351998
0.193167,0.241769
0.351118,0.3359
0.672706,0.611328
0.188153,0.215039
0.441506,0.435157
0.319877,0.379661
0.245127,0.169651
0.337684,0.416122
0.284836,0.308486
0.818666,0.798463
0.58127,0.524433
0.478235,0.455596
0.573898,0.428794
0.379024,0.322458
0.0641383,0.107811
0.38651,0.394262
0.853854,0.935124
0.750336,0.620296
0.555987,0.450109
0.937692,0.849497
0.331371,0.352691
0.774817,0.764319
0.444166,0.435261
0.762119,0.73623
0.513938,0.455842
0.819976,0.792589
0.479426,0.503116
0.607752,0.66079
0.36286,0.40699
0.391782,0.434785
0.328528,0.269139
0.313087,0.311332
0.563588,0.464814
0.515666,0.583441
0.799866,0.781626
0.340505,0.313504
0.405235,0.387196
0.749061,0.555546
0.43361,0.429027
0.883366,0.805317
0.835042,0.720695
0.736989,0.706131
0.317133,0.292872
0.59283,0.494117
0.494945,0.509389
0.609105,0.491362
0.449157,0.429671
0.0846325,0.192998
0.240291,0.184077
0.397307,0.422188
0.772581,0.8317
0.21003,0.24032
0.556355,0.583129
0.679407,0.612998
0.53759,0.411262
0.3549,0.284593
0.606334,0.492423
0.660377,0.829807
0.226882,0.263976 
0.611518,0.597295
0.34826,0.362677
0.0812732,0.0331791
0.748492,0.678678
0.336245,0.414267
0.431963,0.422198
0.406666,0.390218
0.441982,0.436634
0.642882,0.652225
0.404007,0.435965
0.559667,0.470388
0.340287,0.399923
0.951689,0.94673
0.365338,0.347321
0.776677,0.746233
0.82759,0.797323
0.571214,0.477085
0.629942,0.529832
0.754879,0.612267
0.405604,0.408552
0.483366,0.512542
0.715107,0.802457
0.298614,0.305979
0.522302,0.581252
0.332179,0.348585
0.47933,0.457378
0.750165,0.651356
0.35434,0.372598
0.743712,0.675707
0.40197,0.443372
0.463905,0.421318
0.455232,0.481477
0.41966,0.430019
0.599474,0.582708
0.773564,0.858249
0.0903682,0.173533
0.348823,0.36248
0.394313,0.384581
0.723083,0.694598
0.683319,0.691362
0.393366,0.387563
0.100524,0.227385
0.322609,0.321349
0.561143,0.400225
0.754416,0.742116
0.274299,0.227945
0.780314,0.66831
0.440543,0.464536
0.275883,0.391466
0.0823697,0.0761069
0.374495,0.389704
0.714134,0.574187
0.232609,0.246639
0.571415,0.580055
0.0702476,0.133599
0.574878,0.479694
0.828148,0.816682
0.208873,0.204615
0.126775,0.141058
0.461737,0.423581
0.319919,0.274362
0.476804,0.393681
0.251929,0.253309
0.422564,0.470432
0.799552,0.742655
0.235121,0.232152
0.58733,0.592153
0.479088,0.411903
0.674549,0.587057
0.588509,0.532924
0.200808,0.241684
0.441198,0.392222
0.429081,0.430039
0.238524,0.222369
0.0450106,0.0638947
0.703447,0.586112
0.654169,0.579651
0.333455,0.398114
0.0887673,0.184295
0.663549,0.677912
0.310118,0.235852
0.464405,0.482692
0.615432,0.496335
0.69898,0.680501
0.216046,0.221788
0.0964745,0.117345
0.503753,0.480982
0.568858,0.508191
0.495808,0.520262
0.677972,0.725404
0.275656,0.266257
0.547488,0.507116
0.379926,0.41394
0.741583,0.721586
0.556617,0.519607
0.158795,0.338323
0.286851,0.273851
0.427014,0.443851
0.322983,0.399294
0.177232,0.220506
0.549652,0.509979
0.276236,0.265264
0.583783,0.590796
0.0382217,0.0572135
0.211873,0.24401
0.71571,0.505217
0.693989,0.519866
0.570153,0.57626
0.0376438,0.0582823
0.509306,0.52218
0.395221,0.446251
0.759413,0.7285
0.466952,0.414998
0.426963,0.465053
0.774604,0.730833
0.273452,0.30686
0.0666476,0.119253
0.191353,0.245814
0.432489,0.317248
0.913915,0.964317
0.241871,0.28516
0.24904,0.250339
0.347273,0.422199
0.611223,0.669912
0.820148,0.688594
0.527287,0.45721
0.583319,0.63293
0.158668,0.115926
0.232987,0.223948
0.38386,0.411713
0.234651,0.203079
0.293326,0.393183
0.387574,0.401974
0.30726,0.481972
0.320544,0.404502
0.690509,0.676532
0.610243,0.510176
0.395059,0.466733
0.235142,0.172068
0.700158,0.568027
0.606382,0.570764
0.306302,0.349773
0.214643,0.25189
0.743599,0.855249
0.476355,0.443616
0.712301,0.558254
0.362577,0.35248
0.521615,0.568054
0.314996,0.388594
0.408677,0.421332
0.351743,0.406105
0.432022,0.334728
0.378037,0.400312
0.534908,0.558208
0.0605039,0.110336
0.143531,0.252306
0.505162,0.428221
0.689519,0.745274
0.367082,0.422542
0.698352,0.66264
0.657226,0.622724
0.549637,0.597255
0.521668,0.518403
0.270553,0.258643
0.735765,0.613571
0.305509,0.328181
0.563452,0.502343
0.369581,0.388478
0.193638,0.220673
0.864919,0.739229
0.582368,0.51822
0.671825,0.738866
0.540083,0.496838
0.845315,0.727271
0.0790683,0.146605
0.754275,0.812143
0.291417,0.320745
0.836514,0.722977
0.297149,0.433327
0.240253,0.232084
0.321418,0.292263
0.558193,0.509499
0.789849,0.755748
0.644283,0.596776
0.249623,0.212845
0.932678,0.968723
0.521683,0.402202
0.720418,0.708431
0.403619,0.407974
0.631921,0.523553
0.176767,0.249983
0.497038,0.414541
0.249598,0.196621
0.738688,0.606008
0.789656,0.651018
0.618234,0.526089
0.0894388,0.0485957
0.726266,0.700206
0.0142939,0.0260601
0.413856,0.402634
0.55746,0.502366
0.110001,0.20771
0.520853,0.453201
0.591433,0.533499
0.229875,0.129855
0.216424,0.210676
0.346582,0.401176
0.15167,0.142237
0.950812,0.970897
0.391773,0.445439
0.57526,0.527642
0.857359,0.828388
0.223338,0.232635
0.291254,0.284028
0.592555,0.581987
0.526535,0.543454
0.633704,0.800246
0.561293,0.456615
0.158184,0.253969
0.490433,0.406526
0.270601,0.20821
0.547909,0.552464
0.284681,0.427674
0.341691,0.301704
0.540986,0.429373
0.546442,0.503221
0.722911,0.693499
0.190411,0.271083
0.35963,0.410529
0.501503,0.496754
0.802369,0.942774
0.477528,0.371538
0.735722,0.604217
0.372969,0.400856
0.253233,0.301791
0.828788,0.919827
0.376299,0.39552
0.117491,0.162781
0.348282,0.383518
0.436021,0.444357
0.366033,0.380553
0.870604,0.7578
0.922778,0.822207
0.436399,0.382873
0.928144,0.96641
0.85668,0.809189
0.618195,0.561356
0.331421,0.371608
0.563896,0.795229
0.237156,0.200628
0.452574,0.490129
0.840197,0.958682
0.43877,0.462924
0.828951,0.798609
0.700217,0.603101
0.605746,0.575833
0.651278,0.653948
0.231416,0.254834
0.417679,0.38308
0.109598,0.160378
0.60897,0.472348
0.378835,0.434141
0.561723,0.459745
0.779657,0.70062
0.307684,0.320423
0.559026,0.569363
0.725367,0.65273
0.0539347,0.0842039
0.0514887,0.0775086
0.795274,0.660781
0.511934,0.442381
0.886624,0.768172
0.536927,0.54672
0.340416,0.343251
0.510573,0.507515
0.394988,0.428864
0.325767,0.343601
0.62097,0.495739
0.697833,0.711049
0.253703,0.203368
0.77113,0.692293
0.481725,0.495942
0.760068,0.650333
0.0745792,0.174582
0.6623,0.634118
0.743334,0.639617
0.396682,0.432931
0.719258,0.746733
0.0572881,0.0761562
0.517111,0.530348
0.917696,0.96934
0.0539806,0.0762635
0.555065,0.598792
0.679861,0.789296
0.731027,0.50297
0.588026,0.640164
0.543713,0.544273
0.651986,0.490922
0.39515,0.345097
0.422914,0.374544
0.318312,0.338061
0.130081,0.20754
0.41257,0.429845
0.794428,0.693115
0.815663,0.676797
0.51095,0.461797
0.912554,0.889288
0.765661,0.759725
0.403581,0.412966
0.418783,0.411969
0.654618,0.565626
0.423406,0.485908
0.335684,0.384406
0.810224,0.769406
0.940588,0.976081
0.079245,0.052345
0.519295,0.459798
0.592536,0.61495
0.242841,0.329133
0.154027,0.164109
0.611512,0.501372
0.563538,0.562104
0.390915,0.395142
0.541294,0.500961
0.491749,0.43765
0.405712,0.390901
0.0530035,0.0823144
0.588939,0.787626
0.488034,0.434655
0.387897,0.405719
0.0676343,0.0917388
0.610714,0.571082
0.888896,0.772318
0.490131,0.45834
0.43244,0.42293
0.715532,0.595418
0.379217,0.435216
0.690332,0.541555
0.907796,0.797888
0.24774,0.208931
0.481171,0.436601
0.882333,0.762469
0.265139,0.478253
0.464542,0.49275
0.367845,0.416859
0.713186,0.625686
0.0953412,0.226598
0.885893,0.766114
0.762229,0.668033
0.607436,0.501596
0.387728,0.380017
0.597419,0.555774
0.829348,0.789693
0.451988,0.377714
0.0964681,0.188775
0.253661,0.206333
0.197021,0.219385
0.495004,0.446987
0.775509,0.718376